[
    {
        "facebookId": "100011113723251"
    },
    {
        "facebookId": "100027543323377"
    },
    {
        "facebookId": "100030649700623"
    },
    {
        "facebookId": "100006245198895"
    },
    {
        "facebookId": "100006142217126"
    },
    {
        "facebookId": "100028463180476"
    },
    {
        "facebookId": "100010132509183"
    },
    {
        "facebookId": "100044630983199"
    },
    {
        "facebookId": "100009866885383"
    },
    {
        "facebookId": "100041811797634"
    },
    {
        "facebookId": "100000198964473"
    },
    {
        "facebookId": "100003659575438"
    },
    {
        "facebookId": "100011325384123"
    },
    {
        "facebookId": "100008223251844"
    },
    {
        "facebookId": "100024661510065"
    },
    {
        "facebookId": "100038937949861"
    },
    {
        "facebookId": "100035021707169"
    },
    {
        "facebookId": "100008450177629"
    },
    {
        "facebookId": "100045694384737"
    },
    {
        "facebookId": "100044859186640"
    },
    {
        "facebookId": "100012994121086"
    },
    {
        "facebookId": "100021327187225"
    },
    {
        "facebookId": "100028866257183"
    },
    {
        "facebookId": "100008147496082"
    },
    {
        "facebookId": "100004118923575"
    },
    {
        "facebookId": "100004781654123"
    },
    {
        "facebookId": "100023405149340"
    },
    {
        "facebookId": "100003944317879"
    },
    {
        "facebookId": "100008270298074"
    },
    {
        "facebookId": "100004243453153"
    }
]