[
    {
        "facebookId": "100008083866471",
        "cluster": "Khách ít tương tác"
    },
    {
        "facebookId": "100004216088623",
        "cluster": "Khách hay inbox riêng"
    },
    {
        "facebookId": "100030565282448",
        "cluster": "Khách hay inbox riêng và yêu cầu xem sổ hồng"
    },
    {
        "facebookId": "100011562546037",
        "cluster": "Khách ít tương tác"
    },
    {
        "facebookId": "598557366",
        "cluster": "Khách hay inbox riêng"
    },
    {
        "facebookId": "100003530821503",
        "cluster": "Khách ít tương tác"
    },
    {
        "facebookId": "100005864498480",
        "cluster": "Khách ít tương tác"
    },
    {
        "facebookId": "606687840",
        "cluster": "Khách ít tương tác"
    },
    {
        "facebookId": "100006654427617",
        "cluster": "Khách ít tương tác"
    },
    {
        "facebookId": "100042273707797",
        "cluster": "Khách hay inbox riêng và yêu cầu xem sổ hồng"
    },
    {
        "facebookId": "100013926165178",
        "cluster": "Khách ít tương tác"
    },
    {
        "facebookId": "100004632960123",
        "cluster": "Khách ít tương tác"
    },
    {
        "facebookId": "100000055263805",
        "cluster": "Khách ít tương tác"
    },
    {
        "facebookId": "100038495386592",
        "cluster": "Khách ít tương tác"
    },
    {
        "facebookId": "100007220867273",
        "cluster": "Khách ít tương tác"
    },
    {
        "facebookId": "100034643801385",
        "cluster": "Khách ít tương tác"
    },
    {
        "facebookId": "100044250571963",
        "cluster": "Khách hay inbox riêng"
    },
    {
        "facebookId": "100042732930486",
        "cluster": "Khách hay inbox riêng"
    },
    {
        "facebookId": "100008382584138",
        "cluster": "Khách ít tương tác"
    },
    {
        "facebookId": "1082692450",
        "cluster": "Khách ít tương tác"
    },
    {
        "facebookId": "100002914746442",
        "cluster": "Khách ít tương tác"
    },
    {
        "facebookId": "100027782359347",
        "cluster": "Khách hay inbox riêng"
    },
    {
        "facebookId": "100018353951929",
        "cluster": "Khách hay hỏi giá và inbox riêng"
    },
    {
        "facebookId": "100010286508292",
        "cluster": "Khách hay inbox riêng và yêu cầu xem sổ hồng"
    },
    {
        "facebookId": "100029460231606",
        "cluster": "Khách ít tương tác"
    },
    {
        "facebookId": "100012669909398",
        "cluster": "Khách hay inbox riêng"
    },
    {
        "facebookId": "100004156148771",
        "cluster": "Khách hay inbox riêng"
    },
    {
        "facebookId": "100000534006148",
        "cluster": "Khách hay inbox riêng và yêu cầu xem sổ hồng"
    },
    {
        "facebookId": "100008169991854",
        "cluster": "Khách ít tương tác"
    },
    {
        "facebookId": "100033997235942",
        "cluster": "Khách ít tương tác"
    },
    {
        "facebookId": "100024270768718",
        "cluster": "Khách ít tương tác"
    },
    {
        "facebookId": "100022070670536",
        "cluster": "Khách ít tương tác"
    },
    {
        "facebookId": "100038719206597",
        "cluster": "Khách hay inbox riêng và yêu cầu xem sổ hồng"
    },
    {
        "facebookId": "100002468462738",
        "cluster": "Khách hay hỏi giả, hỏi thông tin phòng và inbox riêng"
    },
    {
        "facebookId": "100004253142226",
        "cluster": "Khách hay inbox riêng"
    },
    {
        "facebookId": "100034128695814",
        "cluster": "Khách hay hỏi giả, hỏi thông tin phòng và inbox riêng"
    },
    {
        "facebookId": "100007119271750",
        "cluster": "Khách hay inbox riêng và yêu cầu xem sổ hồng"
    },
    {
        "facebookId": "100022627187726",
        "cluster": "Khách ít tương tác"
    },
    {
        "facebookId": "100001845364515",
        "cluster": "Khách hay inbox riêng"
    },
    {
        "facebookId": "100004925587394",
        "cluster": "Khách hay inbox riêng"
    },
    {
        "facebookId": "100005868246476",
        "cluster": "Khách hay inbox riêng và yêu cầu xem sổ hồng"
    },
    {
        "facebookId": "100004706403746",
        "cluster": "Khách ít tương tác"
    },
    {
        "facebookId": "100024687840109",
        "cluster": "Khách ít tương tác"
    },
    {
        "facebookId": "100031258896310",
        "cluster": "Khách hay inbox riêng"
    },
    {
        "facebookId": "100004270991206",
        "cluster": "Khách chủ yếu like các bài post bán nhà"
    },
    {
        "facebookId": "100010899526429",
        "cluster": "Khách ít tương tác"
    },
    {
        "facebookId": "100001571072479",
        "cluster": "Khách ít tương tác"
    },
    {
        "facebookId": "100001426116643",
        "cluster": "Khách ít tương tác"
    },
    {
        "facebookId": "100000648375909",
        "cluster": "Khách hay inbox riêng và yêu cầu xem sổ hồng"
    },
    {
        "facebookId": "618538789",
        "cluster": "Khách ít tương tác"
    },
    {
        "facebookId": "100034042414764",
        "cluster": "Khách hay inbox riêng"
    },
    {
        "facebookId": "100011494715758",
        "cluster": "Khách ít tương tác"
    },
    {
        "facebookId": "100003089891221",
        "cluster": "Khách hay inbox riêng và yêu cầu xem sổ hồng"
    },
    {
        "facebookId": "100032409421770",
        "cluster": "Khách ít tương tác"
    },
    {
        "facebookId": "100040321785349",
        "cluster": "Khách ít tương tác"
    },
    {
        "facebookId": "100029140087245",
        "cluster": "Khách hay inbox riêng"
    },
    {
        "facebookId": "100005226913990",
        "cluster": "Khách ít tương tác"
    },
    {
        "facebookId": "100005435140479",
        "cluster": "Khách ít tương tác"
    },
    {
        "facebookId": "100001892431066",
        "cluster": "Khách hay inbox riêng"
    },
    {
        "facebookId": "100014105042539",
        "cluster": "Khách ít tương tác"
    },
    {
        "facebookId": "100005573409751",
        "cluster": "Khách ít tương tác"
    },
    {
        "facebookId": "100005255767454",
        "cluster": "Khách hay inbox riêng"
    },
    {
        "facebookId": "100034719017127",
        "cluster": "Khách ít tương tác"
    },
    {
        "facebookId": "100000521469137",
        "cluster": "Khách ít tương tác"
    },
    {
        "facebookId": "1238304313",
        "cluster": "Khách ít tương tác"
    },
    {
        "facebookId": "100006763175137",
        "cluster": "Khách hay inbox riêng"
    },
    {
        "facebookId": "100041879409331",
        "cluster": "Khách ít tương tác"
    },
    {
        "facebookId": "100004777124058",
        "cluster": "Khách ít tương tác"
    },
    {
        "facebookId": "100042511390886",
        "cluster": "Khách ít tương tác"
    },
    {
        "facebookId": "100011093371465",
        "cluster": "Khách hay inbox riêng và yêu cầu xem sổ hồng"
    },
    {
        "facebookId": "100000372168673",
        "cluster": "Khách ít tương tác"
    },
    {
        "facebookId": "100037696986277",
        "cluster": "Khách hay inbox riêng"
    },
    {
        "facebookId": "100013673380383",
        "cluster": "Khách ít tương tác"
    },
    {
        "facebookId": "100003241568568",
        "cluster": "Khách hay inbox riêng và yêu cầu xem sổ hồng"
    },
    {
        "facebookId": "1061533377",
        "cluster": "Khách ít tương tác"
    },
    {
        "facebookId": "100004710370606",
        "cluster": "Khách hay inbox riêng"
    },
    {
        "facebookId": "100003009379475",
        "cluster": "Khách ít tương tác"
    },
    {
        "facebookId": "100007792992260",
        "cluster": "Khách ít tương tác"
    },
    {
        "facebookId": "100000392816358",
        "cluster": "Khách ít tương tác"
    },
    {
        "facebookId": "100014039882526",
        "cluster": "Khách hay inbox riêng"
    },
    {
        "facebookId": "100000414685431",
        "cluster": "Khách hay inbox riêng và yêu cầu xem sổ hồng"
    },
    {
        "facebookId": "100004382804895",
        "cluster": "Khách ít tương tác"
    },
    {
        "facebookId": "100003068859873",
        "cluster": "Khách ít tương tác"
    },
    {
        "facebookId": "100003203928466",
        "cluster": "Khách ít tương tác"
    },
    {
        "facebookId": "709462538",
        "cluster": "Khách ít tương tác"
    },
    {
        "facebookId": "100006826920835",
        "cluster": "Khách ít tương tác"
    },
    {
        "facebookId": "100037161263047",
        "cluster": "Khách ít tương tác"
    },
    {
        "facebookId": "100009790387197",
        "cluster": "Khách ít tương tác"
    },
    {
        "facebookId": "100003957886367",
        "cluster": "Khách hay inbox riêng và yêu cầu xem sổ hồng"
    },
    {
        "facebookId": "100022187323126",
        "cluster": "Khách ít tương tác"
    },
    {
        "facebookId": "100031085641643",
        "cluster": "Khách ít tương tác"
    },
    {
        "facebookId": "100007027863647",
        "cluster": "Khách ít tương tác"
    },
    {
        "facebookId": "100037343221449",
        "cluster": "Khách ít tương tác"
    },
    {
        "facebookId": "100042103339983",
        "cluster": "Khách ít tương tác"
    },
    {
        "facebookId": "100001438576983",
        "cluster": "Khách ít tương tác"
    },
    {
        "facebookId": "100001379747511",
        "cluster": "Khách ít tương tác"
    },
    {
        "facebookId": "100009496189509",
        "cluster": "Khách ít tương tác"
    },
    {
        "facebookId": "100042488117725",
        "cluster": "Khách ít tương tác"
    },
    {
        "facebookId": "100010877684044",
        "cluster": "Khách ít tương tác"
    },
    {
        "facebookId": "100004197214204",
        "cluster": "Khách ít tương tác"
    },
    {
        "facebookId": "100026578233456",
        "cluster": "Khách hay inbox riêng"
    },
    {
        "facebookId": "100041517882021",
        "cluster": "Khách ít tương tác"
    },
    {
        "facebookId": "100002780800322",
        "cluster": "Khách ít tương tác"
    },
    {
        "facebookId": "100004331175937",
        "cluster": "Khách hay inbox riêng"
    },
    {
        "facebookId": "100024297459472",
        "cluster": "Khách hay inbox riêng và yêu cầu xem sổ hồng"
    },
    {
        "facebookId": "100027265150050",
        "cluster": "Khách ít tương tác"
    },
    {
        "facebookId": "100005762898783",
        "cluster": "Khách hay hỏi giả, hỏi thông tin phòng và inbox riêng"
    },
    {
        "facebookId": "100045394965704",
        "cluster": "Khách ít tương tác"
    },
    {
        "facebookId": "100010181108604",
        "cluster": "Khách ít tương tác"
    },
    {
        "facebookId": "100002799789910",
        "cluster": "Khách hay inbox riêng"
    },
    {
        "facebookId": "100003817997636",
        "cluster": "Khách ít tương tác"
    },
    {
        "facebookId": "100015719616024",
        "cluster": "Khách hay inbox riêng"
    },
    {
        "facebookId": "100045348551253",
        "cluster": "Khách ít tương tác"
    },
    {
        "facebookId": "100008083634559",
        "cluster": "Khách ít tương tác"
    },
    {
        "facebookId": "100029104590102",
        "cluster": "Khách hay inbox riêng"
    },
    {
        "facebookId": "100037849921769",
        "cluster": "Khách ít tương tác"
    },
    {
        "facebookId": "100008275236179",
        "cluster": "Khách ít tương tác"
    },
    {
        "facebookId": "100003260034818",
        "cluster": "Khách hay inbox riêng và yêu cầu xem sổ hồng"
    },
    {
        "facebookId": "100003042954841",
        "cluster": "Khách ít tương tác"
    },
    {
        "facebookId": "100022998693626",
        "cluster": "Khách ít tương tác"
    },
    {
        "facebookId": "1314513746",
        "cluster": "Khách tương tác bình luận nhiều"
    },
    {
        "facebookId": "100041522169293",
        "cluster": "Khách ít tương tác"
    },
    {
        "facebookId": "100007990726569",
        "cluster": "Khách ít tương tác"
    },
    {
        "facebookId": "100040551043854",
        "cluster": "Khách hay inbox riêng và yêu cầu xem sổ hồng"
    },
    {
        "facebookId": "100041256400944",
        "cluster": "Khách hay inbox riêng"
    },
    {
        "facebookId": "1670460678",
        "cluster": "Khách ít tương tác"
    },
    {
        "facebookId": "100004036818526",
        "cluster": "Khách ít tương tác"
    },
    {
        "facebookId": "100010675683769",
        "cluster": "Khách ít tương tác"
    },
    {
        "facebookId": "100012744739770",
        "cluster": "Khách ít tương tác"
    },
    {
        "facebookId": "100005857423541",
        "cluster": "Khách hay hỏi giả, hỏi thông tin phòng và inbox riêng"
    },
    {
        "facebookId": "100008278748795",
        "cluster": "Khách ít tương tác"
    },
    {
        "facebookId": "100045209693342",
        "cluster": "Khách ít tương tác"
    },
    {
        "facebookId": "100006489308537",
        "cluster": "Khách ít tương tác"
    },
    {
        "facebookId": "100004269515210",
        "cluster": "Khách ít tương tác"
    },
    {
        "facebookId": "100024575820515",
        "cluster": "Khách ít tương tác"
    },
    {
        "facebookId": "100010118527311",
        "cluster": "Khách hay inbox riêng"
    },
    {
        "facebookId": "1842672806",
        "cluster": "Khách ít tương tác"
    },
    {
        "facebookId": "100031021774702",
        "cluster": "Khách hay hỏi giả, hỏi thông tin phòng và inbox riêng"
    },
    {
        "facebookId": "100000894352851",
        "cluster": "Khách hay inbox riêng và yêu cầu xem sổ hồng"
    },
    {
        "facebookId": "100000213219704",
        "cluster": "Khách hay inbox riêng và yêu cầu xem sổ hồng"
    },
    {
        "facebookId": "100004502704418",
        "cluster": "Khách ít tương tác"
    },
    {
        "facebookId": "100003094258508",
        "cluster": "Khách ít tương tác"
    },
    {
        "facebookId": "100033260676177",
        "cluster": "Khách ít tương tác"
    },
    {
        "facebookId": "100004072186451",
        "cluster": "Khách không tương tác"
    },
    {
        "facebookId": "100003326532618",
        "cluster": "Khách không tương tác"
    },
    {
        "facebookId": "100013393770742",
        "cluster": "Khách không tương tác"
    },
    {
        "facebookId": "100001569842196",
        "cluster": "Khách không tương tác"
    },
    {
        "facebookId": "100029282568043",
        "cluster": "Khách không tương tác"
    },
    {
        "facebookId": "100004044467035",
        "cluster": "Khách không tương tác"
    },
    {
        "facebookId": "100030174529346",
        "cluster": "Khách không tương tác"
    },
    {
        "facebookId": "100008144894413",
        "cluster": "Khách không tương tác"
    },
    {
        "facebookId": "100017482665872",
        "cluster": "Khách không tương tác"
    },
    {
        "facebookId": "100026386144474",
        "cluster": "Khách không tương tác"
    },
    {
        "facebookId": "100042311769015",
        "cluster": "Khách không tương tác"
    },
    {
        "facebookId": "100045117436830",
        "cluster": "Khách không tương tác"
    },
    {
        "facebookId": "100004318392572",
        "cluster": "Khách không tương tác"
    },
    {
        "facebookId": "100018719651994",
        "cluster": "Khách không tương tác"
    },
    {
        "facebookId": "100012448205273",
        "cluster": "Khách không tương tác"
    },
    {
        "facebookId": "100024319327981",
        "cluster": "Khách không tương tác"
    },
    {
        "facebookId": "100002690701511",
        "cluster": "Khách không tương tác"
    },
    {
        "facebookId": "100035569320467",
        "cluster": "Khách không tương tác"
    },
    {
        "facebookId": "100039664477244",
        "cluster": "Khách không tương tác"
    },
    {
        "facebookId": "100004836790590",
        "cluster": "Khách không tương tác"
    },
    {
        "facebookId": "100016034415188",
        "cluster": "Khách không tương tác"
    },
    {
        "facebookId": "100033971408205",
        "cluster": "Khách không tương tác"
    },
    {
        "facebookId": "100024321352520",
        "cluster": "Khách không tương tác"
    },
    {
        "facebookId": "100041618677826",
        "cluster": "Khách không tương tác"
    },
    {
        "facebookId": "100042117049007",
        "cluster": "Khách không tương tác"
    }
]